<svg width="663" height="527" viewBox="0 0 663 527" fill="none" xmlns="http://www.w3.org/2000/svg">
<path d="M659.824 313.118C670.688 394.009 655.895 474.989 580.65 506.522C505.405 538.056 418.856 502.591 387.337 427.31C355.819 352.029 430.184 306.985 466.512 233.905C540.283 85.5023 626.087 61.9106 659.824 313.118Z" fill="#F2F2F2"/>
<path d="M524.362 527C589.473 527 642.255 519.816 642.255 510.954C642.255 502.092 589.473 494.908 524.362 494.908C459.252 494.908 406.469 502.092 406.469 510.954C406.469 519.816 459.252 527 524.362 527Z" fill="#3F3D56"/>
<path d="M475.98 462.167L447.238 470.116L451.673 486.165L480.415 478.217L475.98 462.167Z" fill="#2F2E41"/>
<path d="M449.219 489.004C451.988 488.238 452.578 481.629 450.537 474.242C448.496 466.856 444.597 461.488 441.828 462.254C439.06 463.02 438.47 469.628 440.511 477.015C442.552 484.402 446.451 489.769 449.219 489.004Z" fill="#2F2E41"/>
<path d="M537.959 414.915C539.991 399.917 537.823 387.24 533.116 386.602C528.41 385.964 522.948 397.605 520.916 412.604C518.884 427.603 521.052 440.279 525.758 440.917C530.464 441.555 535.927 429.914 537.959 414.915Z" fill="#2F2E41"/>
<path d="M524.074 519.878C554.331 519.878 578.86 495.338 578.86 465.067C578.86 434.795 554.331 410.255 524.074 410.255C493.817 410.255 469.289 434.795 469.289 465.067C469.289 495.338 493.817 519.878 524.074 519.878Z" fill="#2F2E41"/>
<path d="M475.98 452.453L447.238 460.402L451.673 476.452L480.415 468.503L475.98 452.453Z" fill="#2F2E41"/>
<path d="M449.219 479.29C451.988 478.524 452.578 471.916 450.537 464.529C448.496 457.142 444.597 451.775 441.828 452.54C439.06 453.306 438.47 459.915 440.511 467.302C442.552 474.688 446.451 480.056 449.219 479.29Z" fill="#2F2E41"/>
<path d="M538.46 452.4C548.801 452.4 557.184 444.013 557.184 433.667C557.184 423.321 548.801 414.934 538.46 414.934C528.119 414.934 519.736 423.321 519.736 433.667C519.736 444.013 528.119 452.4 538.46 452.4Z" fill="white"/>
<path d="M544.448 431.636C547.895 431.636 550.689 428.84 550.689 425.392C550.689 421.943 547.895 419.147 544.448 419.147C541.001 419.147 538.206 421.943 538.206 425.392C538.206 428.84 541.001 431.636 544.448 431.636Z" fill="#3F3D56"/>
<path d="M587.341 502.733C607.615 501.718 623.142 482.746 622.022 460.357C620.902 437.969 603.559 420.642 583.285 421.658C563.012 422.673 559.83 438.595 560.95 460.984C562.07 483.372 567.067 503.748 587.341 502.733Z" fill="#6C63FF"/>
<path d="M501.683 441.875C498.384 442.143 495.113 441.087 492.591 438.942C490.068 436.796 488.501 433.736 488.234 430.435C487.967 427.133 489.022 423.861 491.166 421.338C493.311 418.814 496.369 417.246 499.669 416.979C506.541 416.423 508.415 421.881 508.971 428.756C509.527 435.631 508.555 441.319 501.683 441.875Z" fill="white"/>
<path d="M555.988 351.565H468.518V396.081H555.988V351.565Z" fill="#6C63FF"/>
<path d="M517.396 427.939C519.427 412.941 517.259 400.264 512.553 399.626C507.847 398.988 502.384 410.629 500.352 425.628C498.32 440.627 500.488 453.303 505.195 453.941C509.901 454.579 515.364 442.938 517.396 427.939Z" fill="#2F2E41"/>
<path d="M393.793 435.571C396.296 435.571 398.325 433.541 398.325 431.037C398.325 428.533 396.296 426.502 393.793 426.502C391.289 426.502 389.26 428.533 389.26 431.037C389.26 433.541 391.289 435.571 393.793 435.571Z" fill="#FF6584"/>
<path d="M584.535 247.183C584.464 247.183 584.393 247.172 584.326 247.15C400.963 189.134 239.354 196.721 136.069 213.302C122.013 215.557 107.919 218.162 94.1795 221.045C90.6718 221.78 87.0327 222.568 83.3634 223.389C78.9814 224.365 74.6576 225.371 70.5115 226.376C68.721 226.801 66.9653 227.228 65.2447 227.659C62.6383 228.303 59.9937 228.973 57.1588 229.711C53.9911 230.528 50.7725 231.385 47.5905 232.258C47.5789 232.262 47.567 232.266 47.555 232.268L47.5553 232.269C43.9612 233.251 40.3861 234.261 36.9288 235.27C35.0576 235.811 33.2508 236.344 31.5201 236.87C31.3267 236.924 31.1554 236.975 30.9817 237.028L30.6099 237.141C30.3945 237.207 30.1819 237.272 29.9692 237.332L29.9557 237.337L29.956 237.337L29.3932 237.512C28.7221 237.715 28.0672 237.914 27.4231 238.112C10.4015 243.361 1.04418 247.096 0.951735 247.133C0.867201 247.167 0.776822 247.184 0.685756 247.183C0.594691 247.181 0.504723 247.162 0.420989 247.127C0.337255 247.091 0.261394 247.039 0.19774 246.974C0.134085 246.909 0.0838811 246.831 0.0499966 246.747C0.0161121 246.662 -0.000792683 246.572 0.000251584 246.481C0.00129585 246.39 0.0202671 246.3 0.0560811 246.216C0.0918952 246.132 0.143851 246.056 0.208983 245.993C0.274114 245.929 0.351149 245.879 0.435682 245.845C0.528803 245.808 9.93187 242.054 27.0155 236.785C27.6619 236.587 28.3185 236.388 28.9916 236.184L29.5144 236.021C29.5324 236.015 29.5503 236.009 29.5686 236.004C29.7803 235.944 29.9916 235.879 30.2062 235.814L30.5787 235.701C30.7643 235.645 30.9471 235.589 31.1344 235.538C32.8532 235.015 34.6662 234.48 36.5421 233.937C40.0008 232.928 43.5793 231.918 47.1761 230.934C47.1872 230.93 47.1988 230.928 47.2099 230.924V230.924C50.4031 230.047 53.6335 229.187 56.8114 228.367C59.6507 227.629 62.3004 226.957 64.9112 226.312C66.6391 225.882 68.3981 225.453 70.1882 225.027C74.3389 224.02 78.6715 223.013 83.0614 222.035C86.7364 221.213 90.3816 220.423 93.8951 219.688C107.656 216.8 121.772 214.191 135.849 211.932C239.282 195.327 401.123 187.728 584.744 245.828C584.902 245.878 585.036 245.982 585.124 246.123C585.211 246.264 585.245 246.431 585.22 246.595C585.195 246.759 585.112 246.908 584.986 247.016C584.861 247.124 584.701 247.183 584.535 247.183L584.535 247.183Z" fill="#2F2E41"/>
<path d="M302.845 157.633C300.684 157.633 298.571 156.992 296.775 155.791C294.978 154.59 293.577 152.883 292.75 150.885C291.923 148.888 291.707 146.69 292.128 144.569C292.55 142.449 293.59 140.501 295.119 138.972C296.647 137.443 298.593 136.402 300.713 135.98C302.832 135.559 305.029 135.775 307.026 136.602C309.022 137.43 310.729 138.831 311.93 140.628C313.13 142.426 313.771 144.54 313.771 146.702C313.768 149.6 312.616 152.378 310.567 154.428C308.519 156.477 305.742 157.63 302.845 157.633V157.633ZM302.845 137.158C300.958 137.158 299.114 137.718 297.545 138.766C295.976 139.815 294.754 141.306 294.032 143.049C293.31 144.793 293.121 146.712 293.489 148.564C293.857 150.415 294.765 152.116 296.099 153.45C297.434 154.785 299.133 155.694 300.984 156.062C302.834 156.431 304.752 156.242 306.495 155.519C308.238 154.797 309.728 153.574 310.776 152.004C311.825 150.435 312.384 148.589 312.384 146.702C312.381 144.171 311.375 141.746 309.587 139.956C307.799 138.167 305.374 137.161 302.845 137.158Z" fill="#3F3D56"/>
<path d="M379.129 282.521C376.968 282.521 374.855 281.88 373.058 280.679C371.261 279.478 369.861 277.77 369.034 275.773C368.207 273.775 367.991 271.577 368.412 269.457C368.834 267.336 369.874 265.388 371.402 263.86C372.93 262.331 374.877 261.29 376.997 260.868C379.116 260.446 381.313 260.662 383.31 261.49C385.306 262.317 387.013 263.718 388.213 265.516C389.414 267.314 390.055 269.427 390.055 271.589C390.052 274.487 388.899 277.266 386.851 279.315C384.803 281.365 382.026 282.517 379.129 282.521V282.521ZM379.129 262.045C377.242 262.045 375.398 262.605 373.829 263.654C372.26 264.702 371.037 266.193 370.315 267.937C369.593 269.681 369.404 271.6 369.772 273.451C370.14 275.303 371.049 277.003 372.383 278.338C373.717 279.673 375.417 280.582 377.268 280.95C379.118 281.318 381.036 281.129 382.779 280.407C384.522 279.684 386.012 278.461 387.06 276.891C388.108 275.322 388.668 273.477 388.668 271.589C388.665 269.059 387.659 266.633 385.871 264.844C384.082 263.055 381.658 262.048 379.129 262.045V262.045Z" fill="#3F3D56"/>
<path d="M216.159 343.577C213.998 343.577 211.885 342.936 210.089 341.735C208.292 340.534 206.891 338.826 206.064 336.829C205.237 334.832 205.021 332.634 205.443 330.513C205.864 328.393 206.905 326.445 208.433 324.916C209.961 323.387 211.908 322.346 214.027 321.924C216.147 321.502 218.343 321.719 220.34 322.546C222.336 323.374 224.043 324.775 225.243 326.572C226.444 328.37 227.085 330.483 227.085 332.645C227.082 335.544 225.93 338.322 223.881 340.371C221.833 342.421 219.056 343.574 216.159 343.577V343.577ZM216.159 323.102C214.272 323.102 212.428 323.662 210.859 324.71C209.29 325.759 208.068 327.25 207.346 328.993C206.624 330.737 206.435 332.656 206.803 334.508C207.171 336.359 208.08 338.059 209.414 339.394C210.748 340.729 212.448 341.638 214.298 342.006C216.149 342.374 218.067 342.185 219.81 341.463C221.553 340.74 223.042 339.517 224.091 337.948C225.139 336.378 225.698 334.533 225.698 332.645C225.695 330.115 224.689 327.689 222.901 325.9C221.113 324.111 218.688 323.105 216.159 323.102V323.102Z" fill="#3F3D56"/>
<path d="M133.235 527C198.345 527 251.128 519.816 251.128 510.954C251.128 502.092 198.345 494.908 133.235 494.908C68.1241 494.908 15.3416 502.092 15.3416 510.954C15.3416 519.816 68.1241 527 133.235 527Z" fill="#3F3D56"/>
<path d="M126.858 487.364C157.115 487.364 181.643 462.824 181.643 432.552C181.643 402.281 157.115 377.74 126.858 377.74C96.6005 377.74 72.0721 402.281 72.0721 432.552C72.0721 462.824 96.6005 487.364 126.858 487.364Z" fill="#2F2E41"/>
<path d="M118.536 475.569H101.892V505.403H118.536V475.569Z" fill="#2F2E41"/>
<path d="M151.823 475.569H135.18V505.403H151.823V475.569Z" fill="#2F2E41"/>
<path d="M115.762 510.954C123.422 510.954 129.632 508.624 129.632 505.75C129.632 502.876 123.422 500.547 115.762 500.547C108.102 500.547 101.892 502.876 101.892 505.75C101.892 508.624 108.102 510.954 115.762 510.954Z" fill="#2F2E41"/>
<path d="M149.049 510.26C156.709 510.26 162.919 507.93 162.919 505.056C162.919 502.183 156.709 499.853 149.049 499.853C141.389 499.853 135.18 502.183 135.18 505.056C135.18 507.93 141.389 510.26 149.049 510.26Z" fill="#2F2E41"/>
<path d="M128.245 437.409C138.586 437.409 146.969 429.022 146.969 418.676C146.969 408.33 138.586 399.943 128.245 399.943C117.904 399.943 109.521 408.33 109.521 418.676C109.521 429.022 117.904 437.409 128.245 437.409Z" fill="white"/>
<path d="M128.245 424.92C131.692 424.92 134.486 422.125 134.486 418.676C134.486 415.227 131.692 412.432 128.245 412.432C124.798 412.432 122.003 415.227 122.003 418.676C122.003 422.125 124.798 424.92 128.245 424.92Z" fill="#3F3D56"/>
<path d="M73.7139 381.579C69.2902 361.758 83.4309 341.73 105.298 336.845C127.165 331.96 148.478 344.068 152.902 363.889C157.326 383.709 142.833 391.02 120.966 395.905C99.0991 400.79 78.1375 401.4 73.7139 381.579Z" fill="#6C63FF"/>
<path d="M166.805 236.736C172.206 222.598 172.988 209.761 168.552 208.065C164.116 206.368 156.14 216.454 150.739 230.593C145.338 244.731 144.555 257.568 148.992 259.264C153.428 260.961 161.403 250.874 166.805 236.736Z" fill="#2F2E41"/>
<path d="M108.134 329.867C138.391 329.867 162.919 305.327 162.919 275.055C162.919 244.784 138.391 220.244 108.134 220.244C77.8763 220.244 53.348 244.784 53.348 275.055C53.348 305.327 77.8763 329.867 108.134 329.867Z" fill="#2F2E41"/>
<path d="M99.8117 318.072H83.168V347.906H99.8117V318.072Z" fill="#2F2E41"/>
<path d="M133.099 318.072H116.455V347.906H133.099V318.072Z" fill="#2F2E41"/>
<path d="M97.0377 353.457C104.698 353.457 110.907 351.127 110.907 348.253C110.907 345.379 104.698 343.05 97.0377 343.05C89.3777 343.05 83.168 345.379 83.168 348.253C83.168 351.127 89.3777 353.457 97.0377 353.457Z" fill="#2F2E41"/>
<path d="M130.325 352.763C137.985 352.763 144.195 350.433 144.195 347.559C144.195 344.685 137.985 342.356 130.325 342.356C122.665 342.356 116.455 344.685 116.455 347.559C116.455 350.433 122.665 352.763 130.325 352.763Z" fill="#2F2E41"/>
<path d="M109.52 279.912C119.862 279.912 128.245 271.525 128.245 261.179C128.245 250.833 119.862 242.446 109.52 242.446C99.1794 242.446 90.7963 250.833 90.7963 261.179C90.7963 271.525 99.1794 279.912 109.52 279.912Z" fill="white"/>
<path d="M109.521 267.423C112.968 267.423 115.762 264.628 115.762 261.179C115.762 257.73 112.968 254.935 109.521 254.935C106.074 254.935 103.279 257.73 103.279 261.179C103.279 264.628 106.074 267.423 109.521 267.423Z" fill="#3F3D56"/>
<path d="M54.9897 224.082C50.566 204.261 64.7067 184.233 86.5739 179.348C108.441 174.463 129.754 186.571 134.178 206.392C138.601 226.212 124.109 233.522 102.242 238.408C80.3749 243.293 59.4133 243.903 54.9897 224.082Z" fill="#6C63FF"/>
<path d="M71.1768 261.367C73.2121 257.073 63.7809 248.335 50.1118 241.849C36.4427 235.363 23.7118 233.585 21.6765 237.878C19.6413 242.171 29.0724 250.91 42.7416 257.396C56.4107 263.882 69.1416 265.66 71.1768 261.367Z" fill="#2F2E41"/>
<path d="M81.223 294.829C81.223 300.194 95.0294 310.787 110.35 310.787C125.67 310.787 140.034 295.684 140.034 290.319C140.034 284.955 125.67 291.36 110.35 291.36C95.0294 291.36 81.223 289.465 81.223 294.829Z" fill="white"/>
<path d="M538.268 186.27C568.525 186.27 593.054 161.73 593.054 131.458C593.054 101.186 568.525 76.6463 538.268 76.6463C508.011 76.6463 483.482 101.186 483.482 131.458C483.482 161.73 508.011 186.27 538.268 186.27Z" fill="#2F2E41"/>
<path d="M570.492 169.334L554.114 172.3L559.426 201.658L575.803 198.691L570.492 169.334Z" fill="#2F2E41"/>
<path d="M537.74 175.273L521.362 178.239L526.674 207.596L543.052 204.63L537.74 175.273Z" fill="#2F2E41"/>
<path d="M535.367 213.771C541.212 208.819 544.446 203.026 542.59 200.832C540.733 198.639 534.489 200.877 528.644 205.829C522.799 210.782 519.565 216.575 521.421 218.768C523.278 220.961 529.521 218.724 535.367 213.771Z" fill="#2F2E41"/>
<path d="M567.439 207.962C573.285 203.01 576.519 197.217 574.662 195.024C572.806 192.831 566.562 195.068 560.717 200.021C554.871 204.973 551.638 210.766 553.494 212.959C555.35 215.153 561.594 212.915 567.439 207.962Z" fill="#2F2E41"/>
<path d="M534.433 136.784C544.774 136.784 553.157 128.397 553.157 118.051C553.157 107.705 544.774 99.3176 534.433 99.3176C524.091 99.3176 515.708 107.705 515.708 118.051C515.708 128.397 524.091 136.784 534.433 136.784Z" fill="white"/>
<path d="M526.737 117.58C530.184 117.58 532.978 114.785 532.978 111.336C532.978 107.887 530.184 105.092 526.737 105.092C523.29 105.092 520.496 107.887 520.496 111.336C520.496 114.785 523.29 117.58 526.737 117.58Z" fill="#3F3D56"/>
<path d="M581.486 71.8287C582.31 51.5366 564.829 34.349 542.442 33.4392C520.055 32.5294 501.239 48.2418 500.415 68.534C499.591 88.8261 515.153 93.4366 537.54 94.3465C559.927 95.2563 580.662 92.1208 581.486 71.8287Z" fill="#6C63FF"/>
<path d="M514.381 127.595C515.443 122.964 504.349 116.468 489.602 113.086C474.856 109.704 462.042 110.718 460.981 115.349C459.92 119.981 471.014 126.477 485.76 129.858C500.506 133.24 513.32 132.227 514.381 127.595Z" fill="#2F2E41"/>
<path d="M621.923 145.488C622.984 140.857 611.891 134.361 597.144 130.979C582.398 127.597 569.584 128.61 568.523 133.242C567.462 137.873 578.556 144.369 593.302 147.751C608.048 151.133 620.862 150.12 621.923 145.488Z" fill="#2F2E41"/>
<path d="M553.315 153.059C553.607 154.672 553.578 156.328 553.231 157.931C552.883 159.534 552.224 161.052 551.289 162.4C550.355 163.748 549.165 164.898 547.787 165.786C546.408 166.673 544.868 167.28 543.255 167.572C541.642 167.864 539.987 167.836 538.385 167.488C536.783 167.141 535.266 166.481 533.918 165.546C532.571 164.611 531.422 163.421 530.534 162.041C529.647 160.662 529.041 159.122 528.749 157.508C527.52 150.721 532.765 148.319 539.549 147.091C546.333 145.862 552.087 146.272 553.315 153.059Z" fill="white"/>
<path d="M404.536 68.1384L403.691 69.2382L466.798 117.806L467.644 116.706L404.536 68.1384Z" fill="#3F3D56"/>
<path d="M374.294 94.3594C400.338 94.3594 421.451 73.2364 421.451 47.1797C421.451 21.1231 400.338 0 374.294 0C348.249 0 327.136 21.1231 327.136 47.1797C327.136 73.2364 348.249 94.3594 374.294 94.3594Z" fill="#FF6584"/>
<path d="M63.0615 504.206C68.3031 504.206 72.5522 499.955 72.5522 494.711C72.5522 489.467 68.3031 485.216 63.0615 485.216C57.82 485.216 53.5709 489.467 53.5709 494.711C53.5709 499.955 57.82 504.206 63.0615 504.206Z" fill="#6C63FF"/>
<path d="M218.259 483.592H193.293V508.57H218.259V483.592Z" fill="#FF6584"/>
<path d="M193.437 509.757C198.679 509.757 202.928 505.505 202.928 500.261C202.928 495.017 198.679 490.766 193.437 490.766C188.196 490.766 183.947 495.017 183.947 500.261C183.947 505.505 188.196 509.757 193.437 509.757Z" fill="#6C63FF"/>
</svg>
