<svg width="610" height="359" viewBox="0 0 610 359" fill="none" xmlns="http://www.w3.org/2000/svg">
<g clip-path="url(#clip0_4_6)">
<path d="M581.69 359H66.1134C61.5285 359 57.1313 357.294 53.8893 354.259C50.6472 351.223 48.8259 347.105 48.8259 342.812C235.722 322.472 419.106 322.472 598.978 342.812C598.978 347.105 597.156 351.223 593.914 354.259C590.672 357.294 586.275 359 581.69 359Z" fill="#CCCCCC"/>
<path d="M598.978 343.764L48.8259 342.812L112.587 242.349L112.892 241.873V20.4639C112.891 17.7765 113.456 15.1154 114.555 12.6325C115.653 10.1496 117.262 7.89355 119.292 5.99326C121.321 4.09296 123.73 2.5856 126.382 1.55727C129.033 0.528943 131.875 -0.000224495 134.745 7.14453e-08H510.008C512.878 -0.000224495 515.719 0.528943 518.371 1.55727C521.022 2.5856 523.432 4.09296 525.461 5.99326C527.49 7.89355 529.1 10.1496 530.198 12.6325C531.296 15.1154 531.861 17.7765 531.861 20.4639V243.396L598.978 343.764Z" fill="#E6E6E6"/>
<path d="M134.247 14.2838C132.36 14.2858 130.55 14.9887 129.216 16.2384C127.881 17.488 127.131 19.1823 127.128 20.9496V222.828C127.131 224.595 127.881 226.289 129.216 227.539C130.55 228.788 132.36 229.491 134.247 229.493H513.557C515.444 229.491 517.253 228.788 518.588 227.539C519.922 226.289 520.673 224.595 520.675 222.828V20.9496C520.673 19.1823 519.922 17.4881 518.588 16.2384C517.253 14.9888 515.444 14.2859 513.557 14.2838H134.247Z" fill="white"/>
<path d="M136.74 256.156C136.157 256.157 135.586 256.314 135.095 256.609C134.604 256.904 134.213 257.324 133.968 257.819L114.321 297.814C114.107 298.249 114.014 298.728 114.049 299.206C114.085 299.684 114.248 300.146 114.524 300.549C114.8 300.953 115.18 301.284 115.629 301.514C116.078 301.744 116.581 301.865 117.093 301.865H530.251C530.771 301.865 531.283 301.74 531.737 301.503C532.191 301.266 532.573 300.924 532.846 300.51C533.119 300.095 533.275 299.623 533.298 299.136C533.322 298.65 533.212 298.166 532.979 297.73L511.624 257.736C511.372 257.26 510.983 256.86 510.501 256.581C510.019 256.302 509.463 256.155 508.896 256.157L136.74 256.156Z" fill="#CCCCCC"/>
<path d="M322.376 10.9509C324.904 10.9509 326.953 9.03241 326.953 6.66579C326.953 4.29917 324.904 2.38065 322.376 2.38065C319.849 2.38065 317.8 4.29917 317.8 6.66579C317.8 9.03241 319.849 10.9509 322.376 10.9509Z" fill="white"/>
<path d="M281.766 309.483C281.096 309.484 280.444 309.691 279.912 310.073C279.379 310.455 278.996 310.99 278.821 311.597L273.893 328.737C273.771 329.16 273.755 329.604 273.846 330.035C273.936 330.465 274.132 330.87 274.417 331.218C274.701 331.566 275.068 331.848 275.488 332.042C275.908 332.236 276.37 332.337 276.838 332.337H370.561C371.047 332.337 371.526 332.228 371.959 332.019C372.391 331.81 372.764 331.508 373.046 331.137C373.328 330.766 373.511 330.337 373.58 329.886C373.649 329.436 373.602 328.976 373.443 328.546L367.107 311.405C366.899 310.844 366.51 310.357 365.993 310.013C365.477 309.668 364.858 309.483 364.224 309.483H281.766Z" fill="#CCCCCC"/>
<path d="M531.861 238.539V242.349H112.587L112.902 241.873V238.539H531.861Z" fill="#CCCCCC"/>
<path d="M480.11 247.265C479.947 247.265 479.788 247.316 479.658 247.409C479.529 247.502 479.435 247.632 479.393 247.78L478.193 251.954C478.163 252.057 478.159 252.165 478.181 252.27C478.203 252.375 478.251 252.473 478.32 252.558C478.389 252.643 478.479 252.711 478.581 252.759C478.683 252.806 478.796 252.831 478.91 252.831H501.733C501.851 252.831 501.968 252.804 502.073 252.753C502.178 252.702 502.269 252.629 502.338 252.538C502.406 252.448 502.451 252.344 502.468 252.234C502.485 252.124 502.473 252.012 502.434 251.907L500.892 247.733C500.841 247.597 500.746 247.478 500.62 247.394C500.495 247.31 500.344 247.265 500.19 247.265H480.11Z" fill="#CCCCCC"/>
<path d="M446.786 247.265C446.622 247.265 446.464 247.316 446.334 247.409C446.204 247.502 446.111 247.632 446.068 247.78L444.868 251.954C444.839 252.057 444.835 252.165 444.857 252.27C444.879 252.375 444.927 252.473 444.996 252.558C445.065 252.643 445.155 252.711 445.257 252.759C445.359 252.806 445.472 252.831 445.586 252.831H468.408C468.527 252.831 468.644 252.804 468.749 252.753C468.854 252.702 468.945 252.629 469.014 252.538C469.082 252.448 469.127 252.344 469.144 252.234C469.161 252.124 469.149 252.012 469.11 251.907L467.567 247.733C467.517 247.597 467.422 247.478 467.296 247.394C467.17 247.31 467.02 247.265 466.865 247.265H446.786Z" fill="#CCCCCC"/>
<path d="M350.238 273.787H352.027L348.45 49.8968H346.661L346.732 54.3634H306.641L306.713 49.8968H304.924L301.347 273.787H303.135L303.367 259.27H350.006L350.238 273.787ZM347.66 112.43H305.714L306.151 85.0715H347.223L347.66 112.43ZM347.687 114.105L348.124 141.463H305.25L305.687 114.105H347.687ZM348.151 143.138L348.588 170.496H304.786L305.223 143.138H348.151ZM348.615 172.171L349.052 199.529H304.322L304.759 172.171H348.615ZM349.079 201.204L349.516 228.562H303.858L304.295 201.204H349.079ZM346.759 56.0384L347.196 83.3965H306.178L306.615 56.0384H346.759ZM303.394 257.595L303.831 230.237H349.543L349.98 257.595H303.394Z" fill="#3F3D56"/>
<path d="M317.826 127.012C333.934 127.012 346.993 114.784 346.993 99.6992C346.993 84.6149 333.934 72.3866 317.826 72.3866C301.717 72.3866 288.659 84.6149 288.659 99.6992C288.659 114.784 301.717 127.012 317.826 127.012Z" fill="#2F2E41"/>
<path d="M334.982 118.575L326.263 120.053L329.091 134.681L337.81 133.203L334.982 118.575Z" fill="#2F2E41"/>
<path d="M317.544 121.531L308.825 123.009L311.653 137.637L320.372 136.159L317.544 121.531Z" fill="#2F2E41"/>
<path d="M316.281 140.716C319.393 138.248 321.115 135.361 320.127 134.268C319.138 133.176 315.814 134.29 312.702 136.758C309.59 139.226 307.868 142.113 308.857 143.206C309.845 144.299 313.169 143.184 316.281 140.716Z" fill="#2F2E41"/>
<path d="M333.356 137.821C336.469 135.353 338.19 132.467 337.202 131.374C336.213 130.281 332.889 131.396 329.777 133.864C326.665 136.332 324.944 139.218 325.932 140.311C326.92 141.404 330.244 140.289 333.356 137.821Z" fill="#2F2E41"/>
<path d="M315.784 102.353C321.289 102.353 325.752 98.1738 325.752 93.0184C325.752 87.863 321.289 83.6837 315.784 83.6837C310.278 83.6837 305.815 87.863 305.815 93.0184C305.815 98.1738 310.278 102.353 315.784 102.353Z" fill="white"/>
<path d="M311.687 92.784C313.522 92.784 315.01 91.3909 315.01 89.6724C315.01 87.954 313.522 86.5609 311.687 86.5609C309.852 86.5609 308.364 87.954 308.364 89.6724C308.364 91.3909 309.852 92.784 311.687 92.784Z" fill="#3F3D56"/>
<path d="M340.835 69.986C341.273 59.8745 331.967 51.3099 320.048 50.8566C308.129 50.4033 298.112 58.2327 297.673 68.3443C297.235 78.4558 305.52 80.7532 317.438 81.2066C329.357 81.66 340.396 80.0976 340.835 69.986Z" fill="#6C63FF"/>
<path d="M305.109 97.7745C305.674 95.4666 299.767 92.2297 291.917 90.5446C284.066 88.8595 277.244 89.3644 276.679 91.6722C276.114 93.9801 282.02 97.217 289.871 98.9021C297.722 100.587 304.544 100.082 305.109 97.7745Z" fill="#2F2E41"/>
<path d="M362.363 106.69C362.928 104.382 357.022 101.146 349.171 99.4605C341.32 97.7754 334.498 98.2802 333.933 100.588C333.368 102.896 339.275 106.133 347.125 107.818C354.976 109.503 361.798 108.998 362.363 106.69Z" fill="#2F2E41"/>
<path d="M325.837 110.463C325.994 111.267 325.98 112.093 325.796 112.892C325.613 113.691 325.262 114.449 324.766 115.122C324.269 115.794 323.636 116.368 322.902 116.812C322.169 117.255 321.349 117.559 320.49 117.705C319.631 117.852 318.749 117.838 317.896 117.665C317.042 117.493 316.233 117.164 315.515 116.698C314.798 116.233 314.185 115.639 313.712 114.952C313.239 114.264 312.916 113.497 312.76 112.692L312.758 112.68C312.104 109.298 314.896 108.101 318.508 107.489C322.12 106.877 325.183 107.081 325.837 110.463Z" fill="white"/>
<path d="M219.038 192.463C221.985 185.241 222.412 178.684 219.991 177.817C217.57 176.951 213.218 182.103 210.27 189.325C207.322 196.547 206.895 203.104 209.316 203.971C211.737 204.837 216.09 199.685 219.038 192.463Z" fill="#2F2E41"/>
<path d="M216.531 216.522C219.176 201.258 208.107 186.877 191.807 184.4C175.507 181.923 160.149 192.289 157.504 207.552C154.859 222.816 165.928 237.197 182.228 239.674C198.528 242.151 213.886 231.785 216.531 216.522Z" fill="#2F2E41"/>
<path d="M182.476 234.01H173.392V249.25H182.476V234.01Z" fill="#2F2E41"/>
<path d="M200.643 234.01H191.559V249.25H200.643V234.01Z" fill="#2F2E41"/>
<path d="M180.962 252.085C185.142 252.085 188.531 250.895 188.531 249.427C188.531 247.959 185.142 246.769 180.962 246.769C176.781 246.769 173.392 247.959 173.392 249.427C173.392 250.895 176.781 252.085 180.962 252.085Z" fill="#2F2E41"/>
<path d="M199.129 251.731C203.309 251.731 206.698 250.541 206.698 249.073C206.698 247.605 203.309 246.415 199.129 246.415C194.948 246.415 191.559 247.605 191.559 249.073C191.559 250.541 194.948 251.731 199.129 251.731Z" fill="#2F2E41"/>
<path d="M158.014 185.999C155.599 175.874 163.317 165.644 175.251 163.149C187.185 160.653 198.817 166.838 201.231 176.963C203.646 187.087 195.736 190.821 183.802 193.317C171.868 195.812 160.428 196.124 158.014 185.999Z" fill="#6C63FF"/>
<path d="M166.848 205.045C167.959 202.852 162.812 198.388 155.352 195.075C147.892 191.761 140.944 190.853 139.833 193.046C138.722 195.239 143.869 199.703 151.329 203.016C158.789 206.33 165.737 207.238 166.848 205.045Z" fill="#2F2E41"/>
<path d="M57.5543 268.385C74.0674 268.385 87.4539 255.85 87.4539 240.387C87.4539 224.923 74.0674 212.388 57.5543 212.388C41.0411 212.388 27.6546 224.923 27.6546 240.387C27.6546 255.85 41.0411 268.385 57.5543 268.385Z" fill="#2F2E41"/>
<path d="M53.0125 262.36H43.9291V277.6H53.0125V262.36Z" fill="#2F2E41"/>
<path d="M71.1794 262.36H62.096V277.6H71.1794V262.36Z" fill="#2F2E41"/>
<path d="M51.4986 280.435C55.6791 280.435 59.0682 279.245 59.0682 277.777C59.0682 276.309 55.6791 275.119 51.4986 275.119C47.318 275.119 43.929 276.309 43.929 277.777C43.929 279.245 47.318 280.435 51.4986 280.435Z" fill="#2F2E41"/>
<path d="M69.6655 280.081C73.8461 280.081 77.2351 278.891 77.2351 277.423C77.2351 275.954 73.8461 274.764 69.6655 274.764C65.485 274.764 62.096 275.954 62.096 277.423C62.096 278.891 65.485 280.081 69.6655 280.081Z" fill="#2F2E41"/>
<path d="M58.3112 242.867C63.9549 242.867 68.5301 238.583 68.5301 233.298C68.5301 228.013 63.9549 223.729 58.3112 223.729C52.6675 223.729 48.0923 228.013 48.0923 233.298C48.0923 238.583 52.6675 242.867 58.3112 242.867Z" fill="white"/>
<path d="M58.3112 236.488C60.1925 236.488 61.7175 235.06 61.7175 233.298C61.7175 231.537 60.1925 230.109 58.3112 230.109C56.43 230.109 54.9049 231.537 54.9049 233.298C54.9049 235.06 56.43 236.488 58.3112 236.488Z" fill="#3F3D56"/>
<path d="M28.5505 214.349C26.1363 204.224 33.8537 193.994 45.7879 191.498C57.7221 189.003 69.3538 195.188 71.7681 205.312C74.1823 215.437 66.2731 219.171 54.3389 221.667C42.4047 224.162 30.9648 224.474 28.5505 214.349Z" fill="#E6E6E6"/>
<path d="M79.3555 140.361C82.3034 133.139 82.7303 126.582 80.3092 125.716C77.888 124.849 73.5356 130.001 70.5878 137.223C67.6399 144.445 67.213 151.002 69.6341 151.869C72.0553 152.736 76.4077 147.583 79.3555 140.361Z" fill="#2F2E41"/>
<path d="M76.849 164.42C79.4941 149.157 68.4247 134.775 52.1248 132.298C35.8249 129.821 20.4669 140.187 17.8217 155.45C15.1766 170.714 26.246 185.095 42.546 187.572C58.8459 190.049 74.2039 179.684 76.849 164.42Z" fill="#2F2E41"/>
<path d="M42.7936 181.909H33.7102V197.148H42.7936V181.909Z" fill="#2F2E41"/>
<path d="M60.9605 181.909H51.8771V197.148H60.9605V181.909Z" fill="#2F2E41"/>
<path d="M41.2797 199.984C45.4603 199.984 48.8493 198.794 48.8493 197.326C48.8493 195.858 45.4603 194.668 41.2797 194.668C37.0992 194.668 33.7102 195.858 33.7102 197.326C33.7102 198.794 37.0992 199.984 41.2797 199.984Z" fill="#2F2E41"/>
<path d="M59.4466 199.629C63.6272 199.629 67.0162 198.439 67.0162 196.971C67.0162 195.503 63.6272 194.313 59.4466 194.313C55.2661 194.313 51.8771 195.503 51.8771 196.971C51.8771 198.439 55.2661 199.629 59.4466 199.629Z" fill="#2F2E41"/>
<path d="M48.0923 162.416C53.7361 162.416 58.3112 158.132 58.3112 152.847C58.3112 147.562 53.7361 143.278 48.0923 143.278C42.4486 143.278 37.8734 147.562 37.8734 152.847C37.8734 158.132 42.4486 162.416 48.0923 162.416Z" fill="white"/>
<path d="M48.0923 156.037C49.9736 156.037 51.4986 154.609 51.4986 152.847C51.4986 151.085 49.9736 149.657 48.0923 149.657C46.2111 149.657 44.686 151.085 44.686 152.847C44.686 154.609 46.2111 156.037 48.0923 156.037Z" fill="#3F3D56"/>
<path d="M18.3317 133.897C15.9174 123.773 23.6348 113.542 35.569 111.047C47.5032 108.551 59.135 114.736 61.5492 124.861C63.9635 134.986 56.0542 138.72 44.1201 141.215C32.1859 143.71 20.7459 144.022 18.3317 133.897Z" fill="#6C63FF"/>
<path d="M27.166 152.943C28.2767 150.75 23.1296 146.286 15.6695 142.973C8.20948 139.66 1.26148 138.752 0.150735 140.945C-0.960008 143.138 4.18713 147.601 11.6472 150.915C19.1072 154.228 26.0552 155.136 27.166 152.943Z" fill="#2F2E41"/>
<path d="M32.6487 170.036C32.6487 172.776 40.1836 178.187 48.5448 178.187C56.9059 178.187 64.7453 170.473 64.7453 167.732C64.7453 164.992 56.9058 168.264 48.5448 168.264C40.1837 168.264 32.6487 167.296 32.6487 170.036Z" fill="white"/>
<path d="M76.7316 53.0286C76.1794 53.0291 75.65 53.2348 75.2595 53.6005C74.8691 53.9661 74.6495 54.4618 74.6488 54.9789V135.592C74.6495 136.11 74.8691 136.605 75.2595 136.971C75.65 137.337 76.1794 137.542 76.7316 137.543H275.983C276.535 137.542 277.064 137.337 277.455 136.971C277.845 136.605 278.065 136.11 278.065 135.592V54.9789C278.065 54.4618 277.845 53.9661 277.455 53.6005C277.064 53.2348 276.535 53.0291 275.983 53.0286H76.7316Z" fill="#6C63FF"/>
<path d="M130.532 114.218C141.698 114.218 150.75 105.741 150.75 95.2857C150.75 84.8299 141.698 76.3538 130.532 76.3538C119.367 76.3538 110.315 84.8299 110.315 95.2857C110.315 105.741 119.367 114.218 130.532 114.218Z" fill="white"/>
<path d="M176.163 92.7668C175.542 92.7764 174.951 93.0138 174.516 93.4279C174.081 93.8419 173.837 94.3995 173.837 94.9803C173.837 95.5612 174.081 96.1187 174.516 96.5328C174.951 96.9469 175.542 97.1843 176.163 97.1938H239.996C240.307 97.1988 240.615 97.1465 240.904 97.0397C241.193 96.933 241.457 96.774 241.68 96.5719C241.904 96.3697 242.082 96.1283 242.206 95.8614C242.329 95.5946 242.396 95.3075 242.401 95.0167C242.406 94.7259 242.35 94.4369 242.236 94.1664C242.121 93.896 241.951 93.6492 241.735 93.4402C241.519 93.2313 241.261 93.0643 240.976 92.9487C240.691 92.8332 240.385 92.7714 240.074 92.7668C240.048 92.7664 240.022 92.7664 239.996 92.7668H176.163Z" fill="white"/>
<path d="M176.163 79.942C175.542 79.9515 174.951 80.189 174.516 80.603C174.081 81.0171 173.837 81.5747 173.837 82.1555C173.837 82.7364 174.081 83.2939 174.516 83.708C174.951 84.1221 175.542 84.3595 176.163 84.369H208.04C208.35 84.374 208.659 84.3217 208.948 84.215C209.237 84.1082 209.5 83.9493 209.724 83.7471C209.947 83.5449 210.126 83.3034 210.249 83.0366C210.373 82.7698 210.439 82.4827 210.444 82.1919C210.449 81.901 210.393 81.6121 210.279 81.3416C210.165 81.0711 209.995 80.8243 209.779 80.6154C209.563 80.4064 209.305 80.2394 209.02 80.1239C208.735 80.0083 208.428 79.9465 208.117 79.942C208.091 79.9416 208.066 79.9416 208.04 79.942H176.163Z" fill="white"/>
<path d="M176.163 106.202C175.542 106.212 174.951 106.449 174.516 106.863C174.081 107.277 173.837 107.835 173.837 108.416C173.837 108.997 174.081 109.554 174.516 109.968C174.951 110.382 175.542 110.62 176.163 110.629H239.996C240.307 110.634 240.615 110.582 240.904 110.475C241.193 110.369 241.457 110.21 241.68 110.007C241.904 109.805 242.082 109.564 242.206 109.297C242.329 109.03 242.396 108.743 242.401 108.452C242.406 108.161 242.35 107.873 242.236 107.602C242.121 107.332 241.951 107.085 241.735 106.876C241.519 106.667 241.261 106.5 240.976 106.384C240.691 106.269 240.385 106.207 240.074 106.202C240.048 106.202 240.022 106.202 239.996 106.202H176.163Z" fill="white"/>
<path d="M486.18 255.314C488.601 254.447 488.174 247.89 485.226 240.668C482.279 233.446 477.926 228.294 475.505 229.161C473.084 230.027 473.511 236.584 476.459 243.806C479.406 251.028 483.759 256.181 486.18 255.314Z" fill="#2F2E41"/>
<path d="M507.02 296.868C523.32 294.391 534.389 280.01 531.744 264.746C529.099 249.483 513.741 239.117 497.441 241.594C481.141 244.071 470.072 258.453 472.717 273.716C475.362 288.98 490.72 299.345 507.02 296.868Z" fill="#2F2E41"/>
<path d="M515.855 291.205H506.772L508.55 309.455L515.871 307.593L515.855 291.205Z" fill="#2F2E41"/>
<path d="M496.053 291.252H486.97L488.747 309.503L495.738 307.593L496.053 291.252Z" fill="#2F2E41"/>
<path d="M488.489 310.36C492.658 310.075 495.945 308.656 495.831 307.192C495.717 305.728 492.244 304.773 488.075 305.058C483.905 305.344 480.618 306.762 480.732 308.226C480.847 309.69 484.319 310.646 488.489 310.36Z" fill="#2F2E41"/>
<path d="M501.474 271.712C507.117 271.712 511.692 267.428 511.692 262.143C511.692 256.858 507.117 252.574 501.474 252.574C495.83 252.574 491.255 256.858 491.255 262.143C491.255 267.428 495.83 271.712 501.474 271.712Z" fill="white"/>
<path d="M501.474 265.333C503.355 265.333 504.88 263.905 504.88 262.143C504.88 260.381 503.355 258.953 501.474 258.953C499.592 258.953 498.067 260.381 498.067 262.143C498.067 263.905 499.592 265.333 501.474 265.333Z" fill="#3F3D56"/>
<path d="M537.6 252.35C542.505 246.131 544.792 239.92 542.707 238.478C540.622 237.036 534.955 240.909 530.05 247.128C525.144 253.347 522.858 259.557 524.943 260.999C527.028 262.441 532.694 258.569 537.6 252.35Z" fill="#2F2E41"/>
<path d="M487.642 283.668C487.642 281.409 493.852 276.95 500.743 276.95C507.634 276.95 514.096 283.308 514.096 285.567C514.096 287.825 507.634 285.128 500.743 285.128C493.852 285.128 487.642 285.926 487.642 283.668Z" fill="white"/>
<path d="M586.073 246.094L422.406 224.847C421.13 224.68 419.977 224.046 419.2 223.084C418.422 222.122 418.084 220.91 418.26 219.715L436.659 95.4321C436.837 94.2373 437.514 93.1574 438.542 92.4295C439.569 91.7016 440.863 91.3851 442.14 91.5494L605.807 112.796C607.083 112.963 608.236 113.597 609.014 114.559C609.791 115.521 610.129 116.733 609.954 117.928L591.555 242.211C591.376 243.406 590.699 244.485 589.671 245.213C588.644 245.941 587.35 246.258 586.073 246.094V246.094Z" fill="#6C63FF"/>
<path d="M527.441 207.307L443.884 196.46C443.779 196.448 443.676 196.426 443.575 196.396L492.583 137.427C492.883 137.059 493.282 136.773 493.74 136.596C494.197 136.42 494.696 136.361 495.186 136.425C495.676 136.488 496.139 136.672 496.528 136.958C496.917 137.244 497.217 137.622 497.4 138.052L517.553 184.511L518.519 186.734L527.441 207.307Z" fill="white"/>
<path opacity="0.2" d="M527.44 207.306L498.912 203.603L515.737 186.373L516.948 185.132L517.554 184.511L518.519 186.734L527.44 207.306Z" fill="black"/>
<path d="M573.964 213.346L501.695 203.964L518.519 186.734L519.73 185.493L541.654 163.038C542.033 162.7 542.483 162.441 542.976 162.278C543.469 162.114 543.993 162.049 544.514 162.087C545.035 162.125 545.542 162.266 546.001 162.499C546.461 162.733 546.863 163.054 547.181 163.442C547.261 163.552 547.333 163.666 547.398 163.783L573.964 213.346Z" fill="white"/>
<path d="M528.457 157.446C535.358 157.446 540.953 152.207 540.953 145.744C540.953 139.281 535.358 134.042 528.457 134.042C521.555 134.042 515.96 139.281 515.96 145.744C515.96 152.207 521.555 157.446 528.457 157.446Z" fill="white"/>
<path d="M460.061 103.067L444.932 101.103L442.834 115.27L457.963 117.234L460.061 103.067Z" fill="#3F3D56"/>
<path d="M531.234 243.193C533.648 233.069 525.931 222.838 513.997 220.343C502.063 217.847 490.431 224.032 488.017 234.157C485.602 244.282 493.512 248.016 505.446 250.511C517.38 253.006 528.82 253.318 531.234 243.193Z" fill="#F2F2F2"/>
<path d="M508.409 310.315C512.578 310.03 515.865 308.612 515.751 307.147C515.637 305.683 512.164 304.728 507.995 305.013C503.825 305.299 500.538 306.717 500.652 308.181C500.767 309.645 504.239 310.601 508.409 310.315Z" fill="#2F2E41"/>
</g>
<defs>
<clipPath id="clip0_4_6">
<rect width="610" height="359" fill="white"/>
</clipPath>
</defs>
</svg>
